<svg xmlns="http://www.w3.org/2000/svg" width="220" height="220" fill="none" viewBox="0 0 220 220">
    <circle cx="110" cy="110" r="110" fill="#F3FAFF"/>
    <rect width="138" height="33.568" x="41" y="46.595" fill="#D3E1EF" rx="8"/>
    <rect width="85.784" height="4.662" x="78.297" y="54.986" fill="#fff" rx="2"/>
    <rect width="41.027" height="4.662" x="78.297" y="65.243" fill="#fff" rx="2"/>
    <rect width="22.378" height="22.378" x="48.459" y="52.189" fill="#fff" rx="4"/>
    <mask id="3k746qpzfa" width="23" height="23" x="48" y="52" maskUnits="userSpaceOnUse">
        <rect width="22.378" height="22.378" x="48.459" y="52.189" fill="#fff" rx="4"/>
    </mask>
    <g fill="#E7F0F7" mask="url(#3k746qpzfa)">
        <path d="M53.432 61.98l-4.973 5.542v7.046h22.379v-10.36l-5.128-4.56-6.994 7.874-5.284-5.542z"/>
        <circle cx="53.122" cy="56.851" r="1.865"/>
    </g>
    <rect width="138" height="33.568" x="40.249" y="143.297" fill="#D3E1EF" rx="8" transform="rotate(-2.856 40.25 143.297)"/>
    <rect width="85.784" height="4.662" x="77.918" y="149.82" fill="#fff" rx="2" transform="rotate(-2.856 77.918 149.82)"/>
    <rect width="41.027" height="4.662" x="78.43" y="160.064" fill="#fff" rx="2" transform="rotate(-2.856 78.43 160.064)"/>
    <rect width="22.378" height="22.378" x="47.978" y="148.513" fill="#fff" rx="4" transform="rotate(-2.856 47.978 148.513)"/>
    <mask id="bbjzu2zv6b" width="25" height="24" x="47" y="147" maskUnits="userSpaceOnUse">
        <rect width="22.378" height="22.378" x="47.978" y="148.513" fill="#fff" rx="4" transform="rotate(-2.856 47.978 148.513)"/>
    </mask>
    <g fill="#E7F0F7" mask="url(#bbjzu2zv6b)">
        <path d="M53.433 158.044l-4.69 5.783.35 7.037 22.351-1.116-.516-10.347-5.35-4.297-6.592 8.212-5.553-5.272z"/>
        <circle cx="52.867" cy="152.937" r="1.865" transform="rotate(-2.856 52.867 152.937)"/>
    </g>
    <mask id="tq0tlq5xlc" width="140" height="41" x="40" y="136" maskUnits="userSpaceOnUse">
        <rect width="138" height="33.568" x="40.249" y="143.297" fill="#D3E1EF" rx="8" transform="rotate(-2.856 40.25 143.297)"/>
    </mask>
    <g mask="url(#tq0tlq5xlc)">
        <path fill="#C4D0DC" d="M179.708 156.223l-64.285-16.798 92.489-18.05-28.204 34.848z"/>
    </g>
    <mask id="0ivwi8t7jd" width="87" height="10" x="77" y="145" maskUnits="userSpaceOnUse">
        <rect width="85.784" height="4.662" x="77.918" y="149.82" fill="#fff" rx="2" transform="rotate(-2.856 77.918 149.82)"/>
    </mask>
    <g mask="url(#0ivwi8t7jd)">
        <path fill="#D9E4EE" d="M179.708 156.223l-64.285-16.798 92.489-18.05-28.204 34.848z"/>
    </g>
    <rect width="168.117" height="40.893" x="29.214" y="79.056" fill="#D3E1EF" rx="8" transform="rotate(7.287 29.214 79.056)"/>
    <rect width="104.505" height="5.68" x="72.988" y="94.96" fill="#fff" rx="2" transform="rotate(7.287 72.988 94.96)"/>
    <rect width="49.981" height="5.68" x="71.402" y="107.355" fill="#fff" rx="2" transform="rotate(7.287 71.402 107.355)"/>
    <rect width="27.262" height="27.262" x="37.364" y="86.969" fill="#fff" rx="4" transform="rotate(7.287 37.364 86.97)"/>
    <mask id="be5ctskq1e" width="32" height="32" x="33" y="86" maskUnits="userSpaceOnUse">
        <rect width="27.262" height="27.262" x="37.364" y="86.969" fill="#fff" rx="4" transform="rotate(7.287 37.364 86.97)"/>
    </mask>
    <g fill="#E7F0F7" mask="url(#be5ctskq1e)">
        <path d="M41.86 99.569l-6.866 5.929-1.088 8.514 27.042 3.458 1.6-12.52-5.492-6.3-9.667 8.433-5.529-7.514z"/>
        <circle cx="42.277" cy="93.324" r="2.272" transform="rotate(7.287 42.277 93.324)"/>
    </g>
</svg>
