{
  "appId": "com.telllisa.mobileApp",
  "appName": "TellLisa",
  "bundledWebRuntime": false,
  "npmClient": "npm",
  "webDir": "www",
  "plugins": {
    "SplashScreen": {
      "launchShowDuration": 0
    },
    "CapacitorFirebaseAuth": {
      "providers": [
        "google.com",
        "twitter.com",
        "facebook.com"
      ],
      "languageCode": "en",
      "nativeAuth": false
    }
  },
  "cordova": {}
}
